<?xml version="1.0" standalone="no"?>
<!DOCTYPE svg PUBLIC "-//W3C//DTD SVG 1.1//EN" "http://www.w3.org/Graphics/SVG/1.1/DTD/svg11.dtd" >
<svg xmlns="http://www.w3.org/2000/svg">
<metadata>Generated by IcoMoon</metadata>
<defs>
<font id="eobuv-icon" horiz-adv-x="1024">
<font-face units-per-em="1024" ascent="960" descent="-64" />
<missing-glyph horiz-adv-x="1024" />
<glyph unicode="&#x20;" horiz-adv-x="512" d="" />
<glyph unicode="&#xe900;" glyph-name="search" d="M1011.644 8.467l-246.232 246.232c61.001 74.359 97.958 169.646 97.958 273.838 0 238.217-193.691 431.463-431.908 431.463s-431.463-193.245-431.463-431.463c0-238.217 193.245-431.463 431.463-431.463 104.192 0 199.034 36.512 273.393 97.513l246.232-246.232c16.92-16.475 43.636-16.475 60.556 0 16.475 16.475 16.475 43.636 0 60.111zM431.463 182.566c-190.574 0-345.972 155.398-345.972 345.972s155.398 345.972 345.972 345.972c190.574 0 345.972-155.398 345.972-345.972s-155.398-345.972-345.972-345.972z" />
<glyph unicode="&#xe901;" glyph-name="heart" horiz-adv-x="1216" d="M608.466-64c-24.669 0-47.476 9.309-65.164 26.531l-414.255 408.669c-66.56 65.164-102.865 151.738-102.865 243.898s36.305 178.735 102.4 243.898c66.095 65.164 154.065 101.004 247.156 101.004 86.109 0 168.029-30.72 232.262-87.040 64.233 55.855 145.687 86.575 232.262 86.575 93.091 0 181.062-35.84 247.156-101.004s102.4-151.738 102.4-243.898c-0.465-92.625-36.771-179.2-102.865-243.898l-413.789-408.204c-16.756-16.756-40.495-26.531-64.698-26.531z" />
<glyph unicode="&#xe902;" glyph-name="heart-o" horiz-adv-x="1216" d="M608.466-64c-24.669 0-47.476 9.309-65.164 26.531l-414.255 408.669c-66.56 65.164-102.865 151.738-102.865 243.898s36.305 178.735 102.4 243.898c66.095 65.164 154.065 101.004 247.156 101.004 86.109 0 168.029-30.72 232.262-87.040 64.233 55.855 145.687 86.575 232.262 86.575 93.091 0 181.062-35.84 247.156-101.004s102.4-151.738 102.4-243.898c-0.465-92.625-36.771-179.2-102.865-243.898l-413.789-408.204c-16.756-16.756-40.495-26.531-64.698-26.531zM607.535 26.298c0.465-0.465 1.396-0.465 1.862 0l413.789 407.738c48.873 48.407 75.869 112.64 75.869 180.596 0 68.422-26.996 132.189-75.869 180.596-48.873 47.942-113.571 74.473-182.458 74.473-69.353 0-134.516-26.531-183.389-74.938l-16.756-16.291c-8.378-8.378-20.015-13.033-32.116-13.033s-23.738 4.655-32.116 13.033l-17.222 16.756c-48.873 48.407-114.036 74.938-183.389 74.938-68.887 0-133.585-26.531-182.458-74.473-48.873-48.407-75.869-112.64-75.869-180.596s26.996-132.189 75.869-180.596l414.255-408.204z" />
<glyph unicode="&#xe903;" glyph-name="shopping-bag" horiz-adv-x="878" d="M861.532-27.492l-51.645 774.233c-0.89 17.363-15.583 30.275-32.946 30.275h-144.25v20.925c0 89.489-74.351 162.059-165.176 162.059h-56.988c-90.824 0-165.176-72.57-165.176-162.059v-20.925h-144.25c-17.363 0-32.056-12.911-32.946-30.275l-52.090-776.014c-0.445-8.904 2.671-17.809 8.904-24.487s15.137-10.24 24.042-10.24h780.021c0 0 0 0 0 0 18.254 0 32.946 14.692 32.946 32.501 0 1.336 0 2.671-0.445 4.007zM311.688 797.941c0 53.871 44.077 97.057 98.838 97.057h56.988c54.317 0 98.838-43.186 98.838-97.057v-20.925h-254.664v20.925zM84.182 1.002l47.638 711.457h113.53v-28.939c-23.151-12.021-39.624-36.063-39.624-63.666 0-39.179 32.946-71.235 73.016-71.235 39.624 0 72.57 32.056 72.57 71.235 0 27.603-16.473 51.645-39.624 63.666v28.939h254.664v-28.939c-23.597-12.021-39.624-36.063-39.624-63.666 0-39.179 32.501-71.235 72.57-71.235s73.016 32.056 73.016 71.235c0 27.603-16.473 51.645-39.624 63.666v28.939h113.53l47.638-711.457h-709.677z" />
<glyph unicode="&#xe904;" glyph-name="clock" d="M512.134 959.889c-299.967 0-512.023-211.877-512.023-511.889s212.056-511.889 512.023-511.889c299.923 0 511.978 211.877 511.978 511.889s-212.056 511.889-511.978 511.889zM560.118 2.434v61.427c0 0 0 0 0 0 0 26.707-21.499 48.073-47.984 48.073 0 0 0 0 0 0-0.045 0-0.045 0-0.045 0-26.484 0-47.984-21.365-47.984-48.073v-61.427c-208.005 22.256-374.568 189.622-397.315 397.492h62.272c26.484 0 47.984 20.92 47.984 47.628 0 13.354-5.564 25.371-14.467 34.275-8.724 8.902-20.92 14.689-34.453 14.689-3.249 0-6.41-0.445-9.437-0.445h-52.079c21.944 207.872 189.488 374.791 397.492 397.492v-63.652c0-26.262 21.499-47.628 48.029-47.628 26.484 0 47.984 21.365 47.984 47.628v1.781c0 0 0 0.445 0 0.445s0 0 0 0v61.427c208.005-22.701 375.592-189.622 397.537-397.492h-52.079c-3.071 0-6.232 0.445-9.481 0.445-13.443 0-25.594-5.787-34.319-14.689-8.991-8.902-14.645-20.476-14.645-34.275 0-26.262 21.499-47.628 48.029-47.628h62.272c-22.746-207.872-189.31-375.236-397.315-397.492zM717.957 651.866c-18.74 18.695-49.141 18.695-67.881 0l-137.052-137.097-166.475 166.475c-18.74 19.14-49.141 19.14-67.881 0-18.74-18.695-18.74-48.963 0-67.658l200.437-200.304c9.392-9.348 21.677-14.244 33.919-14.244 12.285 0 24.616 4.896 33.963 14.244l170.971 170.926c18.74 18.695 18.74 48.963 0 67.658z" />
<glyph unicode="&#xe905;" glyph-name="lock" horiz-adv-x="832" d="M757.929 610.949h-71.235v150.929c0 109.078-87.263 198.122-194.115 198.122h-153.155c-106.852 0-194.115-89.043-194.115-198.122v-150.929h-71.235c-20.035 0-36.508-16.918-36.508-37.398v-362.852c0-151.374 120.654-274.699 268.911-274.699h219.047c148.257 0 268.911 123.325 268.911 274.699v362.852c0 20.48-16.473 37.398-36.508 37.398zM218.325 761.877c0 68.118 54.317 123.77 121.099 123.77h153.155c66.783 0 121.099-55.652 121.099-123.77v-150.929h-395.353v150.929zM721.421 210.698c0-110.414-87.708-200.348-195.896-200.348h-219.047c-108.188 0-195.896 89.934-195.896 200.348v325.899h610.838v-325.899zM379.494 133.675c0-20.48 16.473-36.953 36.508-36.953s36.508 16.473 36.508 36.953v105.962c4.007 6.233 6.678 13.802 6.678 21.816 0 20.48-16.028 37.398-36.063 37.398h-14.247c-20.035 0-36.063-16.918-36.063-37.398 0-8.014 2.671-15.583 6.678-21.816v-105.962z" />
<glyph unicode="&#xe906;" glyph-name="map-marker" horiz-adv-x="832" d="M415.956 960c-220.725 0-400.348-177.043-400.348-394.565 0-155.691 66.057-312.716 191.010-455.062 93.325-105.87 185.806-165.922 189.72-168.591 5.961-4.003 12.811-5.783 19.617-5.783 6.85 0 13.701 1.779 19.662 5.783 3.915 2.669 96.395 62.721 189.72 168.591 124.997 142.346 191.055 299.371 191.055 455.062 0 217.522-179.623 394.565-400.437 394.565zM415.956 14.735c-73.619 54.269-328.552 262.45-328.552 550.7 0 178.377 147.372 323.837 328.552 323.837 181.224 0 328.641-145.46 328.641-323.837 0-288.25-254.977-496.431-328.641-550.7zM416 722.016c-87.632 0-158.893-70.283-158.893-156.58s71.262-156.58 158.893-156.58c87.632 0 158.893 70.283 158.893 156.58s-71.262 156.58-158.893 156.58zM416 479.583c-48.042 0-87.142 38.7-87.142 85.852s39.101 85.852 87.142 85.852c48.042 0 87.098-38.7 87.098-85.852s-39.056-85.852-87.098-85.852z" />
<glyph unicode="&#xe907;" glyph-name="phone" d="M870.208 825.544c-85.215 86.817-198.567 134.456-319.087 134.456-19.768 0-35.751-16.473-35.751-36.508s15.983-36.063 35.751-36.063c101.421 0 196.786-40.070 268.511-113.085 71.769-72.57 111.26-169.628 111.26-272.473 0-20.035 15.983-36.063 35.751-36.063 19.723 0 35.751 16.028 35.751 36.063 0 122.435-46.926 237.301-132.185 323.673zM723.108 501.871c0-20.035 16.028-36.063 35.795-36.063 19.723 0 35.751 16.028 35.751 36.063 0 136.237-109.256 247.096-243.534 247.096 0 0 0 0 0 0-19.768 0-35.751-16.028-35.751-36.063s15.983-36.508 35.751-36.508c94.831 0 171.987-78.358 171.987-174.525zM643.993 317.106c-54.495 2.671-82.232-38.289-95.544-58.323-11.175-16.473-6.99-38.734 9.305-50.31 16.295-11.13 38.556-7.123 49.686 9.35 15.761 23.597 22.884 27.158 32.545 26.713 30.943-3.562 152.799-94.386 165.042-122.435 3.027-8.459 2.938-16.473-0.356-26.713-12.778-38.289-33.97-65.447-61.262-78.358-25.912-12.021-57.7-10.685-91.893 3.117-127.644 52.981-239.215 126.442-331.509 219.047-0.045 0-0.045 0-0.089 0-91.002 93.941-163.484 206.581-215.441 336.139-13.891 34.727-15.004 66.783-3.072 93.050 12.511 28.049 39.179 49.419 77.112 62.33 9.839 3.117 17.898 3.562 26.045 0.445 28.004-12.466 117.315-136.237 120.921-167.402 0.534-9.795-3.117-17.363-26.090-32.946-16.295-11.576-20.48-34.282-9.35-50.755s33.391-20.48 49.686-9.35c19.456 13.357 60.015 41.405 57.21 97.057-3.117 57.878-114.243 211.478-167.357 231.068-23.597 8.904-48.44 9.35-73.817 0.445-57.166-19.144-98.438-54.317-119.407-100.619-20.302-44.967-19.634-97.057 1.914-150.929 55.563-138.017 133.343-259.117 231.157-359.736 0.267-0.445 0.49-0.445 0.757-0.89 98.927-98.838 218.112-177.642 354.349-234.184 27.292-11.13 54.138-16.918 79.827-16.918 24.22 0 47.371 5.343 68.831 15.137 45.679 21.37 80.006 63.221 99.283 121.099 8.504 25.823 8.326 51.2-0.401 74.797-19.59 53.871-170.874 166.957-228.085 170.073z" />
<glyph unicode="&#xe908;" glyph-name="phone-call" d="M959.923 853.393l-328.219-306.661 267.318 2.156v-63.596l-382.114-2.156 25.331 377.802 63.596-3.773-17.785-264.084 328.219 306.122c12.935 11.857 32.876 11.318 45.272-1.078 11.857-12.935 11.318-32.876-1.617-44.733zM433.372 641.587c-3.773-1.617-7.545-2.695-11.318-2.695-10.24 0-20.48 5.928-24.792 15.629-5.928 12.396-1.617 26.947 9.701 33.954 0 1.078-0.539 2.156-0.539 2.695l-78.686 210.189c0 0.539-0.539 1.078-0.539 1.617-0.539 1.617-0.539 2.156-1.078 3.234 0 0-0.539 0-1.078 0-15.091-1.617-28.025 9.701-29.642 24.253-1.078 15.091 10.24 28.025 25.331 29.103 28.564 2.695 49.583-11.318 58.745-39.882l77.608-209.112c9.701-24.253 4.851-56.051-23.714-68.985zM358.458 610.328c-9.162-3.773-15.091-5.928-19.402-7.545-6.467-2.156-7.545-2.695-16.168-8.084-7.006-4.851-8.084-17.246-2.156-26.408l212.884-317.979c5.389-7.545 14.552-10.779 21.558-5.928 8.623 5.389 11.857 9.701 17.785 16.168 3.773 4.312 7.545 8.084 12.396 12.935 4.851 5.389 11.857 8.084 19.402 8.084 0 0 0 0 0 0 7.006 0 14.013-2.695 18.863-8.084l208.573-208.034c4.851-5.389 8.084-12.396 7.545-19.941 0-7.006-3.234-14.013-8.623-18.863-21.019-19.402-61.44-43.655-100.783-60.901-21.019-9.162-74.375-29.642-114.257-29.642v0c-4.312 0-8.623 1.078-12.396 2.695-102.939 51.739-248.994 197.255-355.166 354.627-107.251 160.067-185.937 344.926-194.56 460.261 0 4.312 0.539 8.623 2.156 12.396 11.857 28.564 43.655 72.219 74.914 101.861 29.103 28.025 60.901 49.583 97.549 66.291 7.006 2.695 14.552 3.234 21.558 0.539 7.006-3.234 12.396-8.623 15.091-15.629l107.789-273.785c5.389-14.013-1.078-29.103-14.552-35.032zM845.666 121.502l-163.301 158.989c-0.539 0.539-1.078 0.539-2.156 1.078-10.779-8.084-26.408-6.467-36.109 3.773-9.701 10.779-9.162 28.025 2.156 38.265 22.636 20.48 54.973 13.474 73.836-4.312l165.457-161.145c1.078-0.539 1.617-1.617 2.156-2.156 15.091-18.324 17.246-47.427 5.389-69.524-4.851-9.162-14.552-14.013-24.253-14.013-4.312 0-8.623 1.078-12.935 3.234-13.474 7.006-17.785 23.714-10.779 36.648 1.617 3.234 1.617 7.006 0.539 9.162z" />
<glyph unicode="&#xe909;" glyph-name="phone-call-circle" d="M512 960c-282.767-0.008-511.993-229.234-512-512v0c0.008-282.767 229.234-511.993 512-512v0c282.767 0.008 511.993 229.234 512 512v0c-0.008 282.767-229.234 511.993-512 512v0zM396.245 704.653c15.731 1.484 27.311-6.252 32.356-21.983l42.73-115.136c5.343-13.356 2.678-30.866-13.052-37.99-2.078-0.891-4.174-1.511-6.251-1.511-5.639 0-11.296 3.313-13.671 8.656-3.265 6.827-0.875 14.827 5.358 18.686 0 0.594-0.273 1.215-0.273 1.511l-43.35 115.755c0 0.297-0.275 0.528-0.275 0.824-0.297 0.89-0.321 1.193-0.618 1.786h-0.618c-8.311-0.89-15.391 5.382-16.281 13.396-0.594 8.311 5.635 15.413 13.946 16.006zM351.386 691.944c2.003 0.074 4.047-0.22 5.977-0.962 3.859-1.781 6.828-4.729 8.312-8.587l59.354-150.79c2.968-7.717-0.617-16.039-8.038-19.304-5.046-2.078-8.274-3.232-10.648-4.122-3.562-1.187-4.182-1.497-8.931-4.465-3.859-2.671-4.433-9.518-1.168-14.564l117.197-175.109c2.968-4.155 8.026-5.9 11.885-3.229 4.749 2.968 6.559 5.3 9.824 8.862 2.078 2.375 4.13 4.473 6.801 7.145 2.671 2.968 6.561 4.465 10.717 4.465 3.858 0 7.702-1.497 10.373-4.465l114.862-114.587c2.671-2.968 4.419-6.836 4.122-10.992 0-3.858-1.772-7.702-4.74-10.373-11.576-10.685-33.84-24.026-55.507-33.524-11.576-5.046-40.963-16.35-62.927-16.35-2.375 0-4.723 0.621-6.801 1.512-56.691 28.494-137.109 108.637-195.581 195.306-59.065 88.153-102.419 189.975-107.168 253.493 0 2.374 0.277 4.723 1.168 6.801 6.53 15.731 24.072 39.801 41.287 56.125 16.028 15.434 33.538 27.277 53.721 36.478 1.929 0.742 3.904 1.162 5.908 1.237zM736.777 676.143c4.489-0.111 8.952-1.876 12.366-5.29 6.53-7.123 6.23-18.132-0.893-24.662l-180.742-168.858 147.218 1.168v-35.036l-210.488-1.168 14.014 208.015 34.967-2.061-9.755-145.432 180.742 168.583c3.562 3.265 8.082 4.851 12.572 4.74zM596.635 361.167c7.309-0.779 14.316-4.239 19.51-9.137l91.161-88.757c0.594-0.295 0.871-0.871 1.168-1.168 8.311-10.092 9.484-26.095 2.954-38.264-2.671-5.046-7.985-7.763-13.327-7.763-2.375 0-4.77 0.599-7.145 1.786-7.42 3.858-9.767 13.074-5.908 20.197 0.891 1.781 0.868 3.896 0.273 5.084l-89.924 87.52c-0.295 0.295-0.574 0.321-1.168 0.618-5.936-4.452-14.58-3.578-19.922 2.061-5.343 5.936-5.065 15.451 1.168 21.090s13.85 7.511 21.159 6.732z" />
<glyph unicode="&#xe90a;" glyph-name="iv" d="M0 617.721h336.195v94.544h-0.569v153.193h0.569v94.544h-336.195v-342.281zM242.902 712.265h-150.178v153.193h150.178v-153.193zM923.256 960.003h-437.451v-486.089h-485.804v-537.912h1023.943v1024h-100.688zM100.688 36.861v336.138h385.116v-336.138h-385.116zM923.256 36.861h-336.195v336.138h336.195v-336.138zM587.061 473.914v385.287h336.195v-385.287h-336.195z" />
<glyph unicode="&#xe90b;" glyph-name="mail" d="M873.984 809.986c-96.768 96.721-225.187 150.016-361.984 150.016s-265.216-53.295-361.984-150.016c-96.721-96.721-150.016-225.14-150.016-361.984 0-136.797 53.295-265.216 150.016-361.984 96.768-96.721 225.187-150.016 361.984-150.016 83.316 0 165.748 20.387 239.011 59.206 18.432 9.635 25.367 32.489 15.732 50.967s-32.535 25.414-51.014 15.732c-62.324-32.954-132.608-50.362-203.729-50.362-240.687 0-436.457 195.77-436.457 436.457s195.77 436.457 436.457 436.457c240.687 0 436.457-195.77 436.457-436.457 0-80.989-22.668-127.162-41.751-151.505-20.34-26.205-47.663-41.1-74.938-41.1-37.935 0-76.381 30.208-76.381 97.792v293.935c0 20.806-16.989 37.795-37.748 37.795s-37.748-16.989-37.748-37.795v-16.57c-47.011 47.244-111.849 76.381-183.622 76.381-142.895 0.233-259.165-116.038-259.165-258.932s116.271-259.119 259.165-259.119c25.367 0 50.362 3.537 74.287 10.892 19.921 5.865 31.279 27.089 25.367 47.011-5.865 19.921-27.043 31.279-47.011 25.367-16.989-5.027-34.816-7.773-52.643-7.773-101.143 0-183.622 82.292-183.622 183.622 0 101.143 82.246 183.622 183.622 183.622 101.329 0 183.622-82.246 183.622-183.622v-94.813c0-113.757 76.335-173.335 151.878-173.335 50.595 0 99.7 25.6 134.516 70.284 37.795 48.454 57.716 116.876 57.716 197.865 0 136.844-53.295 265.263-150.016 361.984z" />
<glyph unicode="&#xe90c;" glyph-name="angle-left" horiz-adv-x="704" d="M587.655-64l33.63 33.954-471.202 478.046 471.202 477.507-33.63 34.493-504.94-512 504.94-512z" />
<glyph unicode="&#xe90d;" glyph-name="angle-right" horiz-adv-x="704" d="M116.345 960l-33.63-33.954 471.202-478.046-471.202-477.507 33.63-34.493 504.94 512-504.94 512z" />
</font></defs></svg>